%YAML 1.1
%TAG !u! tag:unity3d.com,2011:
--- !u!55 &1
PhysicsManager:
  m_ObjectHideFlags: 0
  m_Gravity: {x: 0, y: -9.81000042, z: 0}
  m_DefaultMaterial: {fileID: 0}
  m_BounceThreshold: 2
  m_SleepVelocity: .150000006
  m_SleepAngularVelocity: .140000001
  m_MaxAngularVelocity: 7
  m_MinPenetrationForPenalty: .00999999978
  m_SolverIterationCount: 6
  m_RaycastsHitTriggers: 1
  m_LayerCollisionMatrix: e9dd17fee80000fee80000feffffffffe80000feffffffffffffffffffffffffe9fd00fee82400fee9bb00fee9e503fee9e503fee83f03fee99903fee9dd03fee9f800fee9f800fee90090ffe80010fee9000cfee80040fee80020fee80004fee80004feffffffffffffffffffffffffffffffffffffffffffffffffffffffff
